module gitlab.com/so_literate/outboxer/_examples/postgresql

go 1.17

require (
	github.com/jackc/pgx/v4 v4.16.0
	gitlab.com/so_literate/graceful v1.1.0
	gitlab.com/so_literate/outboxer v0.0.0
)

require (
	github.com/jackc/chunkreader/v2 v2.0.1 // indirect
	github.com/jackc/pgconn v1.12.0 // indirect
	github.com/jackc/pgio v1.0.0 // indirect
	github.com/jackc/pgpassfile v1.0.0 // indirect
	github.com/jackc/pgproto3/v2 v2.3.0 // indirect
	github.com/jackc/pgservicefile v0.0.0-20200714003250-2b9c44734f2b // indirect
	github.com/jackc/pgtype v1.11.0 // indirect
	golang.org/x/crypto v0.0.0-20210711020723-a769d52b0f97 // indirect
	golang.org/x/text v0.3.7 // indirect
)

replace gitlab.com/so_literate/outboxer => ../../
